{
    "#" : "n for BCM pin numbers, aka 'gpio', or BOARDnn for physical", 

    "#" : {
        "#" : "Placeholder for direct AC detect sensor",
        "#" : "Power Detect pin: low is on",
        "#" : "See ../documentation/ac-detect-optoisolator_pcb.*",
        "pull" : 1,
        "event" : 0, "#":"both",
        "rate_limit" : { "max" : 1, "secs" : 10, "flapping" : 1 }, "#":"minimal penalty for spamming",
        "keepalive" : 6.0, "#":"1/min",
        "#" : "Latch Ignores changes away from `dir` for `duration`. sort of debounce",
        "latch" : { "dir" : 0, "duration" : 0.4 }, "#":"> 2 cycles of 60hz",
        "invert" : true, "#":"the optoisolator inverts",
        "as_boolean" : false, "#":"false sends 1/0, true sends True/False",
        "#" : "WARNING: t/f meaning backwards?",
        "sequence_messages" : true, "#":"sequence through the messages, false=send the list of messages on each event",
        "messages" : [
            {
            "topic": "local/events/pin/freezer-alarm", 
            "#" : "`null` gets the actual pin value (1|0 etc)",
            "#" : "Or, if a string, will interpolate the pin value for `$payload`",
            "payload" : null 
            } 
        ]
    },
    "BOARD29" : {
        "#" : "Freezer internal alarm: Closed is ok, open is alarm",
        "#" : "disconnected is also alarm. gnd->switch->gpio, pull-up: alarm==LOW",
        "pull" : 1,
        "event" : 0, "#":"both, for deadman detect & current state",
        "rate_limit" : { "max" : 2, "secs" : 10, "flapping" : 1 }, "#":"minimal penalty for spamming",
        "keepalive" : 60.0, "#":"1/min",
        "latch" : { "dir" : 0, "duration" : 1.0 }, "#":"shouldn't need latching, but does",
        "invert" : true, "#":"open is alarm: 0",
        "messages" : [
            {
            "topic": "local/events/pin/freezer-alarm", 
            "payload" : null
            } 
        ]
    },
    "BOARD33" : {
        "#" : "Optional demo-button: simulate failure for tools/demo-data.py config/demo_data.py",
        "#" : "Alternates between messages",
        "#" : "Payloads don't matter",
        "pull" : 1,
        "sequence_messages" : true,
        "messages" : [
            { "topic" : "local/commands/demo-data/demo_data/HOT", "payload" : 1 },
            { "topic" : "local/commands/demo-data/demo_data/COLD", "payload" : 1 }
        ]
    },
    "BOARD32" : {
        "#" : "pin 36",
        "#" : "Optional demo-button: togle demo-mode",
        "#" : "Alternates between messages",
        "#" : "Payloads don't matter",
        "#" : "NB: If not demo-on-startup, requires 2 presses to go to demo mode",
        "pull" : 1,
        "sequence_messages" : true,
        "messages" : [
            { "topic" : "local/commands/demo-data/demo_data/REVERT", "payload" : 1 },
            { "topic" : "local/commands/demo-data/demo_data/DEMO", "payload" : 1 }
        ]
    },
    "BOARD18" : {
        "#" : "Powerboost low-battery norm-high 5V. using 1/2 divider",
        "pull" : 0, "#": "ext pull to high & 0",
        "event" : 0, "#":"both, for deadman detect & current state",
        "rate_limit" : { "max" : 2, "secs" : 60, "flapping" : 1 }, "#":"could be expensive",
        "keepalive" : 120.0, "#":"2/min",
        "# latch" : { "dir" : 0, "duration" : 1.0 }, "#":"shouldn't need latching, but does",
        "messages" : [
            {
            "topic": "local/events/pin/battery", 
            "payload" : null, "#":"Gets value"
            } 
        ]
    },
    "BOARD16" : {
        "#" : "Powerboost USB-in == Power. analog, but treating as 5V vs < 3.6v. using 1/2 divider",
        "pull" : 0, "#": "ext 'pull' to voltage",
        "event" : 0, "#":"both, for deadman detect & current state",
        "rate_limit" : { "max" : 2, "secs" : 60, "flapping" : 1 }, "#":"could be expensive",
        "keepalive" : 120.0, "#":"2/min",
        "# latch" : { "dir" : 0, "duration" : 1.0 }, "#":"shouldn't need latching, but does",
        "messages" : [
            {
            "topic": "local/events/pin/power", 
            "payload" : null, "#":"Gets value"
            } 
        ]
    }
}
